99989676978866489777678496688997768458978889797999
78879877586795762456957566775468687768898769477867
99898786636576555566554378568566665955767898798889
99867985755677758987364845542642687468848967679998
58967788574368474674464534735414636335448745494787
87693457945645644676464555024210465657642965664857
87747663753653345643112223533544248534645465586488
58763666574534543354321240336433442053376545655748
78786546562653333320512202223322446333223505356677
88435615654441123333341111051313111334255575366487
94555766501552240322134130222253404225372486376567
76545455337455013202001021012002205322365545573868
68626744650315032013110100121022333234256685778367
65484564346357344115111010200403214146247336656677
42634545353640245432111321250100043324223256665467
67754875447655332532434110014113301321346563346667
59349864453433632522444412332023512454545537757565
38857782534323544434121434523135425344646473743685
67565846766554544454334133234530467843664457477586
68767552443644350564354634453374553636369658778766
79647595543545643362365615545526653655688566776779
89998778473885554734573743557444555675555579769976
88889995864937876644546556696535578459687886867799
95978678788765765684663756647859794668895668969999
99989968377886846897676546868856648798395896899999
